Lab 5 Predicting Cardiovascular Health Outcomes Using Logistic Regression
…
BMI: body mass index (weight / height^2)

HeartRate: heart rate (beats per minute)

Glucose: blood glucose level (mg / dL)

Question 1

How many patients are included in the dataset? How many experienced CHD?

FRAMINGHAM %>% 
  print(width = Inf)

## # A tibble: 3,658 x 16
##     Male   Age Education Smoker CigsPerDay BPMeds Stroke Hyper Diabetes
##    <dbl> <dbl> <fct>      <dbl>      <dbl>  <dbl>  <dbl> <dbl>    <dbl>
##  1     1    39 4              0          0      0      0     0        0
##  2     0    46 2              0          0      0      0     0        0
##  3     1    48 1              1         20      0      0     0        0
##  4     0    61 3              1         30      0      0     1        0
##  5     0    46 3              1         23      0      0     0        0
##  6     0    43 2              0          0      0      0     1        0
##  7     0    63 1              0          0      0      0     0        0
##  8     0    45 2              1         20      0      0     0        0
##  9     1    52 1              0          0      0      0     1        0
## 10     1    43 1              1         30      0      0     1        0
##    TotChol SysBP DiaBP   BMI HeartRate Glucose TenYearCHD
##      <dbl> <dbl> <dbl> <dbl>     <dbl>   <dbl>      <dbl>
##  1     195  106     70  27.0        80      77          0
##  2     250  121     81  28.7        95      76          0
##  3     245  128.    80  25.3        75      70          0
##  4     225  150     95  28.6        65     103          1
##  5     285  130     84  23.1        85      85          0
##  6     228  180    110  30.3        77      99          0
##  7     205  138     71  33.1        60      85          1
##  8     313  100     71  21.7        79      78          0
##  9     260  142.    89  26.4        76      79          0
## 10     225  162    107  23.6        93      88          0
## # ... with 3,648 more rows
…
