Final Project Predicting Coffee Consumption Using Multiple Linear Regression
…
2. Data Preparation

Demographic Dataset

demo <- read.xport("DEMO_I.XPT")

(demo <- as_tibble(demo))

## # A tibble: 9,971 x 47
##     SEQN SDDSRVYR RIDSTATR RIAGENDR RIDAGEYR RIDAGEMN RIDRETH1 RIDRETH3 RIDEXMON
##    <dbl>    <dbl>    <dbl>    <dbl>    <dbl>    <dbl>    <dbl>    <dbl>    <dbl>
##  1 83732        9        2        1       62       NA        3        3        1
##  2 83733        9        2        1       53       NA        3        3        1
##  3 83734        9        2        1       78       NA        3        3        2
##  4 83735        9        2        2       56       NA        3        3        2
##  5 83736        9        2        2       42       NA        4        4        2
##  6 83737        9        2        2       72       NA        1        1        1
##  7 83738        9        2        2       11       NA        1        1        1
##  8 83739        9        2        1        4       NA        3        3        2
##  9 83740        9        2        1        1       13        2        2        2
## 10 83741        9        2        1       22       NA        4        4        1
## # ... with 9,961 more rows, and 38 more variables: RIDEXAGM <dbl>,
## #   DMQMILIZ <dbl>, DMQADFC <dbl>, DMDBORN4 <dbl>, DMDCITZN <dbl>,
## #   DMDYRSUS <dbl>, DMDEDUC3 <dbl>, DMDEDUC2 <dbl>, DMDMARTL <dbl>,
## #   RIDEXPRG <dbl>, SIALANG <dbl>, SIAPROXY <dbl>, SIAINTRP <dbl>,
## #   FIALANG <dbl>, FIAPROXY <dbl>, FIAINTRP <dbl>, MIALANG <dbl>,
## #   MIAPROXY <dbl>, MIAINTRP <dbl>, AIALANGA <dbl>, DMDHHSIZ <dbl>,
## #   DMDFMSIZ <dbl>, DMDHHSZA <dbl>, DMDHHSZB <dbl>, DMDHHSZE <dbl>,
## #   DMDHRGND <dbl>, DMDHRAGE <dbl>, DMDHRBR4 <dbl>, DMDHREDU <dbl>,
## #   DMDHRMAR <dbl>, DMDHSEDU <dbl>, WTINT2YR <dbl>, WTMEC2YR <dbl>,
…
demo$DMDEDUC2[demo$DMDEDUC3 < 10] <- 1
demo$DMDEDUC2[demo$DMDEDUC3 %in% c(9:12)] <- 2
demo$DMDEDUC2[demo$DMDEDUC3 %in% c(13, 14)] <- 3
demo$DMDEDUC2[demo$DMDEDUC3 == 15] <- 4
demo$DMDEDUC2[demo$DMDEDUC3 %in% c(55, 66)] <- 1
demo$DMDEDUC2[demo$DMDEDUC3 == 77] <- 7
demo$DMDEDUC2[demo$DMDEDUC3 == 99] <- 9

Selecting the desired variables and renaming them.

(demo <- demo %>%
  select(SEQN, GENDER = RIAGENDR, AGE = RIDAGEYR, RACE = RIDRETH1, EDUCATION = DMDEDUC2, MARITAL = DMDMARTL, HH_SIZE = DMDHHSIZ,
         HH_INC = INDHHIN2))

## # A tibble: 9,971 x 8
##     SEQN GENDER   AGE  RACE EDUCATION MARITAL HH_SIZE HH_INC
##    <dbl>  <dbl> <dbl> <dbl>     <dbl>   <dbl>   <dbl>  <dbl>
##  1 83732      1    62     3         5       1       2     10
##  2 83733      1    53     3         3       3       1      4
##  3 83734      1    78     3         3       1       2      5
##  4 83735      2    56     3         5       6       1     10
##  5 83736      2    42     4         4       3       5      7
##  6 83737      2    72     1         2       4       5     14
##  7 83738      2    11     1         1      NA       5      6
##  8 83739      1     4     3        NA      NA       5     15
##  9 83740      1     1     2        NA      NA       7     77
## 10 83741      1    22     4         4       5       3      7
## # ... with 9,961 more rows
…
# Filtered out 12 ($20,000 and Over) and 13 (Under $20,000)
demo <- demo %>%
  filter(!(HH_INC == 12 | HH_INC == 13))

demo$MARITAL <- factor(demo$MARITAL, 
                        labels = c("Married", "Widowed", "Divorced", "Separated", "Never married", "Living with partner", "Refused", "Unsure"))

demo$HH_INC <- cut(demo$HH_INC,
                    breaks = c(0, 4.5, 7.5, 10.5, 76, 98, Inf), 
                    labels = c("Below 20k", "20-45k", "45-75k", "Above 75k", "Refused", "Unsure"))

demo %>%
  print(width = Inf)

## # A tibble: 9,188 x 8
##     SEQN GENDER AGE      RACE     EDUCATION                 MARITAL            
##    <dbl> <fct>  <fct>    <fct>    <fct>                     <fct>              
##  1 83732 Male   55-65    White    College graduate or above Married            
##  2 83733 Male   45-55    White    High school graduate/GED  Divorced           
##  3 83734 Male   Above 75 White    High school graduate/GED  Married            
##  4 83735 Female 55-65    White    College graduate or above Living with partner
##  5 83736 Female 35-45    Black    Some college/AA           Divorced           
##  6 83737 Female 65-75    Hispanic Some high school          Separated          
##  7 83738 Female Below 15 Hispanic Less than high school     <NA>               
##  8 83739 Male   Below 15 White    <NA>                      <NA>               
##  9 83740 Male   Below 15 Hispanic <NA>                      <NA>               
## 10 83741 Male   15-25    Black    Some college/AA           Never married      
##    HH_SIZE HH_INC   
##      <dbl> <fct>    
##  1       2 45-75k   
##  2       1 Below 20k
##  3       2 20-45k   
##  4       1 45-75k   
##  5       5 20-45k   
##  6       5 Above 75k
##  7       5 20-45k   
##  8       5 Above 75k
##  9       7 Refused  
## 10       3 20-45k   
## # ... with 9,178 more rows

Joining the Dietary and Food Code Datasets - join

Reading in the dietary dataset and selecting/renaming the desired variables.

diet <- read.xport("DR1IFF_I.XPT")

(diet <- as_tibble(diet) %>%
  select(SEQN, KCAL = DR1IKCAL, GRAM = DR1IGRMS, USDA = DR1IFDCD))

## # A tibble: 121,481 x 4
##     SEQN  KCAL   GRAM     USDA
##    <dbl> <dbl>  <dbl>    <dbl>
##  1 83732     7 720    92101000
##  2 83732    14   4    91200040
##  3 83732    21   3.92 12210400
##  4 83732     0 240    94100100
##  5 83732   218  75    51101010
##  6 83732   153  28.6  81103080
##  7 83732    12 600    92410320
##  8 83732   629 204    27564060
##  9 83732    12  20    75506010
## 10 83732    10  10    74401010
## # ... with 121,471 more rows

Reading in the food code dataset and renaming the variables.

food_code <- read.xport("DRXFCD_I.XPT")

(food_code <- as_tibble(food_code) %>%
  select(USDA = DRXFDCD, SHORT = DRXFCSD, LONG = DRXFCLD))

## # A tibble: 8,690 x 3
##        USDA SHORT                              LONG                             
##       <dbl> <fct>                              <fct>                            
##  1 11000000 MILK, HUMAN                        Milk, human                      
##  2 11100000 MILK, NFS                          Milk, NFS                        
##  3 11111000 MILK, WHOLE                        Milk, whole                      
##  4 11111100 MILK, LOW SODIUM, WHOLE            Milk, low sodium, whole          
##  5 11111150 MILK, CALCIUM FORTIFIED, WHOLE     Milk, calcium fortified, whole   
##  6 11111160 MILK, CALCIUM FORTIFIED, LOW FAT ~ Milk, calcium fortified, low fat~
##  7 11111170 MILK, CALCIUM FORTIFIED, FAT FREE~ Milk, calcium fortified, fat fre~
##  8 11112110 MILK, REDUCED FAT (2%)             Milk, reduced fat (2%)           
##  9 11112120 MILK, ACIDOPHILUS, LOW FAT (1%)    Milk, acidophilus, low fat (1%)  
## 10 11112130 MILK, ACIDOPHILUS, REDUCED FAT (2~ Milk, acidophilus, reduced fat (~
## # ... with 8,680 more rows

Combining the dietary dataset with the food code dataset to create join.

join <- inner_join(diet, food_code, by = "USDA")

(join <- as_tibble(join))

## # A tibble: 121,481 x 6
##     SEQN  KCAL   GRAM    USDA SHORT                     LONG                    
##    <dbl> <dbl>  <dbl>   <dbl> <fct>                     <fct>                   
##  1 83732     7 720     9.21e7 COFFEE, BREWED            Coffee, brewed          
##  2 83732    14   4     9.12e7 SUGAR SUBSTITUTE, SACCHA~ Sugar substitute, sacch~
##  3 83732    21   3.92  1.22e7 COFFEE CREAMER, POWDER    Coffee creamer, powder  
##  4 83732     0 240     9.41e7 WATER, BOTTLED, UNSWEETE~ Water, bottled, unsweet~
##  5 83732   218  75     5.11e7 BREAD, WHITE, TOASTED     Bread, white, toasted   
##  6 83732   153  28.6   8.11e7 MARGARINE-LIKE SPREAD, T~ Margarine-like spread, ~
##  7 83732    12 600     9.24e7 SOFT DRINK, COLA, DIET    Soft drink, cola, diet  
##  8 83732   629 204     2.76e7 FRANKFURTER OR HOT DOG S~ Frankfurter or hot dog ~
##  9 83732    12  20     7.55e7 MUSTARD                   Mustard                 
## 10 83732    10  10     7.44e7 TOMATO CATSUP             Tomato catsup           
## # ... with 121,471 more rows

Calculating Total Calories - total

Calculating the total number of calories consumed.

total <- join %>%
  group_by(SEQN) %>%
  mutate(TOTAL = sum(KCAL)) %>%
  select(SEQN, TOTAL)

(total <- total %>% 
   distinct(SEQN, TOTAL))

## # A tibble: 8,505 x 2
## # Groups:   SEQN [8,505]
##     SEQN TOTAL
##    <dbl> <dbl>
##  1 83732  1781
##  2 83733  2964
##  3 83734  2482
##  4 83735  1340
##  5 83736   604
##  6 83737  1304
##  7 83738  1239
##  8 83739  1242
##  9 83740  1151
## 10 83741  2338
## # ... with 8,495 more rows

Calculating Total Grams of Coffee - coffee

Selecting the relevant food codes such as coffee creamer and multiple forms of coffee (brewed, cappuccino, Cuban, espresso, iced, instant, latte, macchiato, etc.) while ommitting unrelated coffee products (coffee cake, Irish coffee, etc.).

coffee_code <- food_code[c(393:405, 8254:8374, 8378), ]
(coffee_code <- as_tibble(coffee_code))

## # A tibble: 135 x 3
##        USDA SHORT                              LONG                             
##       <dbl> <fct>                              <fct>                            
##  1 12200100 COFFEE CREAMER, NFS                Coffee creamer, NFS              
##  2 12210200 COFFEE CREAMER, LIQUID             Coffee creamer, liquid           
##  3 12210210 COFFEE CREAMER, LIQUID, FLAVORED   Coffee creamer, liquid, flavored 
##  4 12210260 COFFEE CREAMER, LIQUID, FAT FREE   Coffee creamer, liquid, fat free 
##  5 12210270 COFFEE CREAMER, LIQUID, FAT FREE,~ Coffee creamer, liquid, fat free~
##  6 12210280 COFFEE CREAMER, LIQUID, FAT FREE,~ Coffee creamer, liquid, fat free~
##  7 12210310 COFFEE CREAMER, LIQUID, SUGAR FRE~ Coffee creamer, liquid, sugar fr~
##  8 12210400 COFFEE CREAMER, POWDER             Coffee creamer, powder           
##  9 12210420 COFFEE CREAMER, POWDER, FLAVORED   Coffee creamer, powder, flavored 
## 10 12210430 COFFEE CREAMER, POWDER, FAT FREE   Coffee creamer, powder, fat free 
## # ... with 125 more rows

Finding the total number of grams attributable to consuming coffee or coffee-related products.

coffee <- inner_join(join, coffee_code, by = "USDA")

coffee <- coffee %>%
  group_by(SEQN) %>%
  mutate(COFFEE_TOTAL = sum(GRAM)) %>%
  select(SEQN, COFFEE_TOTAL)

(coffee <- coffee %>%
  distinct(SEQN, COFFEE_TOTAL))

## # A tibble: 2,773 x 2
## # Groups:   SEQN [2,773]
##     SEQN COFFEE_TOTAL
##    <dbl>        <dbl>
##  1 83732         724.
##  2 83733         480 
##  3 83734         777.
##  4 83735         480 
##  5 83742         285 
##  6 83747         360 
##  7 83752         525 
##  8 83757         840 
##  9 83769         480 
## 10 83773         480 
## # ... with 2,763 more rows

Final Dataset - final

First, we created clean, a dataset with SEQN, TOTAL, COFFEE_TOTAL using a left join between total and coffee.

(clean <- left_join(total, coffee, by = "SEQN"))

## # A tibble: 8,505 x 3
## # Groups:   SEQN [8,505]
##     SEQN TOTAL COFFEE_TOTAL
##    <dbl> <dbl>        <dbl>
##  1 83732  1781         724.
##  2 83733  2964         480 
##  3 83734  2482         777.
##  4 83735  1340         480 
##  5 83736   604          NA 
##  6 83737  1304          NA 
##  7 83738  1239          NA 
##  8 83739  1242          NA 
##  9 83740  1151          NA 
## 10 83741  2338          NA 
## # ... with 8,495 more rows

Then we created final using inner join clean with demo.

final <- inner_join(clean, demo, by = "SEQN")

final$COFFEE_TOTAL <- replace_na(final$COFFEE_TOTAL, 0)

(final <- as_tibble(final))

## # A tibble: 7,923 x 10
##     SEQN TOTAL COFFEE_TOTAL GENDER AGE    RACE  EDUCATION MARITAL HH_SIZE HH_INC
##    <dbl> <dbl>        <dbl> <fct>  <fct>  <fct> <fct>     <fct>     <dbl> <fct> 
##  1 83732  1781         724. Male   55-65  White College ~ Married       2 45-75k
##  2 83733  2964         480  Male   45-55  White High sch~ Divorc~       1 Below~
##  3 83734  2482         777. Male   Above~ White High sch~ Married       2 20-45k
##  4 83735  1340         480  Female 55-65  White College ~ Living~       1 45-75k
##  5 83736   604           0  Female 35-45  Black Some col~ Divorc~       5 20-45k
##  6 83737  1304           0  Female 65-75  Hisp~ Some hig~ Separa~       5 Above~
##  7 83738  1239           0  Female Below~ Hisp~ Less tha~ <NA>          5 20-45k
##  8 83739  1242           0  Male   Below~ White <NA>      <NA>          5 Above~
##  9 83740  1151           0  Male   Below~ Hisp~ <NA>      <NA>          7 Refus~
## 10 83741  2338           0  Male   15-25  Black Some col~ Never ~       3 20-45k
## # ... with 7,913 more rows
…
avgkcal <- right_join(diet, coffee_code, by = "USDA") %>%
  group_by(USDA) %>%
  mutate(AVGKCAL = mean(KCAL / GRAMS) * mean(GRAMS)) %>%
  select(USDA, AVGKCAL, SHORT, LONG) %>%
  distinct(.) %>%
  arrange(-(AVGKCAL))

right_join(diet, coffee_code, by = "USDA") %>%
  group_by(USDA) %>%
  mutate(AVGKCAL = mean(KCAL)) %>%
  select(USDA, AVGKCAL, SHORT, LONG) %>%
  distinct(.) %>%
  arrange(-(AVGKCAL))

## # A tibble: 135 x 4
## # Groups:   USDA [135]
##        USDA AVGKCAL SHORT                          LONG                         
##       <dbl>   <dbl> <fct>                          <fct>                        
##  1 92102030    453  FROZEN MOCHA COFFEE DRINK, WI~ Frozen mocha coffee drink, w~
##  2 92101906    348  COFFEE, LATTE, WITH NON-DAIRY~ Coffee, Latte, with non-dair~
##  3 92101925    329. FROZEN COFFEE DRINK, WITH WHI~ Frozen coffee drink, with wh~
##  4 92171000    274. COFFEE, BOTTLED/CANNED         Coffee, bottled/canned       
##  5 92101920    272. FROZEN COFFEE DRINK            Frozen coffee drink          
##  6 92102600    270. COFFEE, ICED CAFE MOCHA        Coffee, Iced Cafe Mocha      
##  7 92101917    268. COFFEE, LATTE, DECAFFEINATED,~ Coffee, Latte, decaffeinated~
##  8 92101950    261. COFFEE, CAFE MOCHA             Coffee, Cafe Mocha           
##  9 92102040    260  FROZEN MOCHA COFFEE DRINK, NO~ Frozen mocha coffee drink, n~
## 10 92101921    221  FROZEN COFFEE DRINK, NONFAT    Frozen coffee drink, nonfat  
## # ... with 125 more rows
